[
  {
   "item_titles": {
     "singular_nominative": "страница",
     "singular_genitive": "страницы",
     "singular_accusative": "страницу",
     "plural_nominative": "страницы",
     "plural_genitive": "страниц"
   },
    "items_on_page": 10,
    "active": false,
    "name": "static",
    "title": "Основной контент",
    "icon": "fa-file-text-o",
    "pills": [
      {"view": "items_list","title": "Основные страницы"},
      {"view": "items_list","title": "Служебные страницы"}
    ]
  },
  {
    "item_titles": {
      "singular_nominative": "товар",
      "singular_genitive": "товара",
      "singular_accusative": "товар",
      "plural_nominative": "товары",
      "plural_genitive": "товаров"
    },
    "items_on_page": 10,
    "active": true,
    "name": "catalog",
    "title": "Каталог",
    "icon": "fa-folder",
    "pills": [
      {"view": "items_list", "title": "Категории"},
      {"view": "products_list", "title": "Товары"},
      {"view": "options", "title": "Свойства"}
    ]
  },
  {
    "item_titles": {
      "singular_nominative": "пользователь",
      "singular_genitive": "пользователя",
      "singular_accusative": "пользователя",
      "plural_nominative": "пользователи",
      "plural_genitive": "пользователей"
    },
    "items_on_page": 5,
    "active": false,
    "name": "users",
    "title": "Пользователи",
    "icon": "fa-group",
    "pills": [
      {"view": "items_list","title": "Пользователи"},
      {"view": "items_list","title": "Группы пользователей"}
    ]
  },
  {
    "item_titles": {
      "singular_nominative": "настройка",
      "singular_genitive": "настройку",
      "singular_accusative": "настройку",
      "plural_nominative": "настройки",
      "plural_genitive": "настроек"
    },
    "items_on_page": 19,
    "active": false,
    "name": "admin_settings",
    "title": "Настройки сайта",
    "icon": "fa-cog",
    "pills": [
      {"view": "options", "title": "Контактная информация"},
      {"view": "options", "title": "Мета-информация"}
    ]
  }
]